"File_name" "Cell" "Target" "Experient_label"
"N2102Ep.b2_S17" "N2102ep" "totalRNA" "N2102ep_totalRNA"
"N2102Ep.b4_S18" "N2102ep" "totalRNA" "N2102ep_totalRNA"
"N2102Ep.bl1_S1" "N2102ep" "totalRNA" "N2102ep_totalRNA"
"N2102Ep.bl2_S2" "N2102ep" "totalRNA" "N2102ep_totalRNA"
"N2102Ep.bl3_S3" "N2102ep" "totalRNA" "N2102ep_totalRNA"
"N2102Ep.bl4_S4" "N2102ep" "totalRNA" "N2102ep_totalRNA"
"N2102Ep.mIgG1_S25" "N2102ep" "IgG" "N2102ep_IgG"
"N2102Ep.mIgG2__S26" "N2102ep" "IgG" "N2102ep_IgG"
"N2102Ep.mIgG3__S27" "N2102ep" "IgG" "N2102ep_IgG"
"NTERA2.b5_S19" "NTERA2" "totalRNA" "NTERA2_totalRNA"
"NTERA2.b7_S20" "NTERA2" "totalRNA" "NTERA2_totalRNA"
"NTERA2.bl5_S5" "NTERA2" "totalRNA" "NTERA2_totalRNA"
"NTERA2.bl6_S6" "NTERA2" "totalRNA" "NTERA2_totalRNA"
"NTERA2.bl7_S7" "NTERA2" "totalRNA" "NTERA2_totalRNA"
"NTERA2.bl8_S8" "NTERA2" "totalRNA" "NTERA2_totalRNA"
"NTERA2.mIgG5__S28" "NTERA2" "IgG" "NTERA2_IgG"
"NTERA2.mIgG6__S29" "NTERA2" "IgG" "NTERA2_IgG"
"NTERA2.mIgG8__S30" "NTERA2" "IgG" "NTERA2_IgG"
"PA.1_DC_200mg.b14_S23" "PA1DC" "totalRNA" "PA1DC_totalRNA"
"PA.1_DC_200mg.b16_S24" "PA1DC" "totalRNA" "PA1DC_totalRNA"
"PA.1_DC_200mg.bl13_S13" "PA1DC" "totalRNA" "PA1DC_totalRNA"
"PA.1_DC_200mg.bl14_S14" "PA1DC" "totalRNA" "PA1DC_totalRNA"
"PA.1_DC_200mg.bl15_S15" "PA1DC" "totalRNA" "PA1DC_totalRNA"
"PA.1_DC_200mg.bl16_S16" "PA1DC" "totalRNA" "PA1DC_totalRNA"
"PA.1_DC_200mg.mIgG13_S34" "PA1DC" "IgG" "PA1DC_IgG"
"PA.1_DC_200mg.mIgG15_S35" "PA1DC" "IgG" "PA1DC_IgG"
"PA.1_DC_200mg.mIgG16_S36" "PA1DC" "IgG" "PA1DC_IgG"
"PA.1_PC.b12_S22" "PA1PC" "totalRNA" "PA1PC_totalRNA"
"PA.1_PC.b9_S21" "PA1PC" "totalRNA" "PA1PC_totalRNA"
"PA.1_PC.bl10_S10" "PA1PC" "totalRNA" "PA1PC_totalRNA"
"PA.1_PC.bl11_S11" "PA1PC" "totalRNA" "PA1PC_totalRNA"
"PA.1_PC.bl12_S12" "PA1PC" "totalRNA" "PA1PC_totalRNA"
"PA.1_PC.bl9_S9" "PA1PC" "totalRNA" "PA1PC_totalRNA"
"PA.1_PC.mIgG10_S32" "PA1PC" "IgG" "PA1PC_IgG"
"PA.1_PC.mIgG11_S33" "PA1PC" "IgG" "PA1PC_IgG"
"PA.1_PC.mIgG9_S31" "PA1PC" "IgG" "PA1PC_IgG"
"N2102Ep.1_S13" "N2102ep" "ORF1" "N2102ep_ORF1"
"N2102Ep.2_S14" "N2102ep" "ORF1" "N2102ep_ORF1"
"N2102Ep.3_S15" "N2102ep" "ORF1" "N2102ep_ORF1"
"N2102Ep.4_S16" "N2102ep" "ORF1" "N2102ep_ORF1"
"NTERA2.clD1.1_S9" "NTERA2" "ORF1" "NTERA2_ORF1"
"NTERA2.clD1.2_S10" "NTERA2" "ORF1" "NTERA2_ORF1"
"NTERA2.clD1.3_S11" "NTERA2" "ORF1" "NTERA2_ORF1"
"NTERA2.clD1.4_S12" "NTERA2" "ORF1" "NTERA2_ORF1"
"PA.1.diffentiated.1_S5" "PA1DC" "ORF1" "PA1DC_ORF1"
"PA.1.diffentiated.2_S6" "PA1DC" "ORF1" "PA1DC_ORF1"
"PA.1.diffentiated.3_S7" "PA1DC" "ORF1" "PA1DC_ORF1"
"PA.1.diffentiated.4_S8" "PA1DC" "ORF1" "PA1DC_ORF1"
"PA.1.pluripotent.1_S1" "PA1PC" "ORF1" "PA1PC_ORF1"
"PA.1.pluripotent.2_S2" "PA1PC" "ORF1" "PA1PC_ORF1"
"PA.1.pluripotent.3_S3" "PA1PC" "ORF1" "PA1PC_ORF1"
"PA.1.pluripotent.4_S4" "PA1PC" "ORF1" "PA1PC_ORF1"
"N2102Epanti.ORF2IP_1_S1" "N2102ep" "ORF2" "N2102ep_ORF2"
"N2102Epanti.ORF2IP_2_S2" "N2102ep" "ORF2" "N2102ep_ORF2"
"N2102Epanti.ORF2IP_3_S3" "N2102ep" "ORF2" "N2102ep_ORF2"
"N2102Epanti.ORF2IP_4_S4" "N2102ep" "ORF2" "N2102ep_ORF2"
"rabbitIgGcontrol_1_S5" "N2102ep" "Rabbit_IgG" "N2102ep_Rabbit_IgG"
"rabbitIgGcontrol_2_S6" "N2102ep" "Rabbit_IgG" "N2102ep_Rabbit_IgG"
"rabbitIgGcontrol_3_S7" "N2102ep" "Rabbit_IgG" "N2102ep_Rabbit_IgG"
"rabbitIgGcontrol_4_S8" "N2102ep" "Rabbit_IgG" "N2102ep_Rabbit_IgG"
"X2102Ep_ERR973723" "N2102ep" "totalRNA" NA
"X2102Ep_ERR973724" "N2102ep" "totalRNA" NA
"NTERA2_SRR7248776" "NTERA2" "totalRNA" NA
"NTERA2_SRR7248778" "NTERA2" "totalRNA" NA
"NTERA2_SRR7248779" "NTERA2" "totalRNA" NA
"PA1_SRR6667518" "PA1PC" "totalRNA" NA
"PA1_SRR6667519" "PA1PC" "totalRNA" NA
"PA1_SRR7759998" "PA1PC" "totalRNA" NA
"PA1_SRR7759999" "PA1PC" "totalRNA" NA
